{"count": 6, "next": "https://api.goshippo.com/addresses/?page=2", "previous": null, "results": [{"object_created": "2017-06-29T08:07:30.322Z", "object_updated": "2017-06-29T08:07:30.329Z", "object_id": "d5b2565af5be413d91b17273c4cb079c", "is_complete": false, "validation_results": {}, "object_owner": "emm.odeke@gmail.com", "name": "Orijtech Bot4", "company": "orijtech", "street_no": "", "street1": "215 Clayton St.", "street2": "", "street3": "", "city": "San Francisco", "state": "CA", "zip": "", "country": "US", "phone": "0015553419393", "email": "bot4@orijtech.com", "is_residential": null, "metadata": "Second one", "test": true}, {"object_created": "2017-06-29T08:07:17.447Z", "object_updated": "2017-06-29T08:07:17.456Z", "object_id": "9bf103be9b114b3e9bead2529c04e35d", "is_complete": false, "validation_results": {}, "object_owner": "emm.odeke@gmail.com", "name": "Orijtech Bot3", "company": "orijtech", "street_no": "", "street1": "215 Clayton St.", "street2": "", "street3": "", "city": "San Francisco", "state": "CA", "zip": "", "country": "US", "phone": "0015553419393", "email": "bot3@orijtech.com", "is_residential": null, "metadata": "Second one", "test": true}, {"object_created": "2017-06-29T08:07:04.005Z", "object_updated": "2017-06-29T08:07:04.012Z", "object_id": "934d55a8104647df94a6d5b81ab477cf", "is_complete": false, "validation_results": {}, "object_owner": "emm.odeke@gmail.com", "name": "Orijtech Bot2", "company": "orijtech", "street_no": "", "street1": "215 Clayton St.", "street2": "", "street3": "", "city": "San Francisco", "state": "CA", "zip": "", "country": "US", "phone": "0015553419393", "email": "bot2@orijtech.com", "is_residential": true, "metadata": "Second one", "test": true}, {"object_created": "2017-06-29T08:06:42.142Z", "object_updated": "2017-06-29T08:06:42.152Z", "object_id": "9ab5ca5a27cf4dbd8fefe576e18ca84e", "is_complete": false, "validation_results": {}, "object_owner": "emm.odeke@gmail.com", "name": "Orijtech", "company": "orijtech", "street_no": "", "street1": "215 Clayton St.", "street2": "", "street3": "", "city": "San Francisco", "state": "CA", "zip": "", "country": "US", "phone": "0015553419393", "email": "bot@orijtech.com", "is_residential": true, "metadata": "Second one", "test": true}, {"object_created": "2017-06-29T06:07:53.075Z", "object_updated": "2017-06-29T06:07:53.101Z", "object_id": "dea9476ba227466bb0a9bf23eaacccef", "is_complete": true, "validation_results": {"is_valid": true, "messages": []}, "object_owner": "emm.odeke@gmail.com", "name": "Chip otle", "company": "Shippo", "street_no": "", "street1": "215 Clayton St", "street2": "", "street3": "", "city": "San Francisco", "state": "CA", "zip": "94117-1913", "country": "US", "phone": "0015553419393", "email": "shippotle@goshippo.com", "is_residential": true, "metadata": "", "test": true}]}